<?xml version="1.0" encoding="utf-8"?>
<!DOCTYPE svg PUBLIC "-//W3C//DTD SVG 1.1//EN" "http://www.w3.org/Graphics/SVG/1.1/DTD/svg11.dtd">
<svg version="1.1" id="slippers" xmlns="http://www.w3.org/2000/svg" xmlns:xlink="http://www.w3.org/1999/xlink" x="0px" y="0px"
	 viewBox="0 0 500 550" xml:space="preserve">
<defs>
      <pattern id="printdesign" x="0" y="0" width="40" height="40" patternUnits="userSpaceOnUse">
      </pattern>
      <pattern id="printdesign-left" x="0" y="0" width="40" height="40" patternUnits="userSpaceOnUse">
      </pattern>
      <pattern id="printdesign-right" x="0" y="0" width="40" height="40" patternUnits="userSpaceOnUse">
      </pattern>
</defs>

</svg>
